{
    "description":"Flower Example",
    "actions": ["giveflowers", "refraining"],
    "patients": ["john", "sam"],
    "consequences": ["johnhappy", "samhappy"],
    "mechanisms": {
                    "johnhappy": "'giveflowers'",
                    "samhappy": "'johnhappy'"
                  },
    "goals": {
        "giveflowers": ["samhappy","johnhappy"],
        "refraining": []
                  },
    "affects": {
        "giveflowers": [],
        "johnhappy": [["john", "+"]],
        "samhappy": [["sam", "+"]]
                  }
   
}
